problem-set-2/task5.vcd
$date
  Tue Mar  6 17:46:41 2018
$end
$version
  GHDL v0
$end
$timescale
  1 fs
$end
$var reg 1 ! a $end
$var reg 1 " b $end
$var reg 1 # c $end
$var reg 1 $ d $end
$var reg 4 % abcd[3:0] $end
$var reg 1 & x $end
$var reg 1 ' y $end
$var reg 1 ( z $end
$scope module uut $end
$var reg 1 ) a $end
$var reg 1 * b $end
$var reg 1 + c $end
$var reg 1 , d $end
$var reg 1 - x $end
$var reg 1 . y $end
$var reg 1 / z $end
$var reg 1 0 c_d_and $end
$var reg 1 1 b_c_nxor $end
$var reg 1 2 a_b_xor $end
$scope module g1 $end
$var reg 1 3 x $end
$var reg 1 4 y $end
$var reg 1 5 z $end
$upscope $end
$scope module g2 $end
$var reg 1 6 x $end
$var reg 1 7 y $end
$var reg 1 8 z $end
$upscope $end
$scope module g3 $end
$var reg 1 9 x $end
$var reg 1 : y $end
$var reg 1 ; z $end
$upscope $end
$scope module g_4_out $end
$var reg 1 < x $end
$var reg 1 = y $end
$var reg 1 > z $end
$upscope $end
$scope module g_5_out $end
$var reg 1 ? x $end
$var reg 1 @ z $end
$upscope $end
$scope module g_6_out $end
$var reg 1 A x $end
$var reg 1 B y $end
$var reg 1 C z $end
$upscope $end
$upscope $end
$enddefinitions $end
#0
0!
0"
0#
0$
b0000 %
U&
U'
U(
0)
0*
0+
0,
U-
U.
U/
U0
U1
U2
03
04
U5
06
07
U8
09
0:
U;
U<
U=
U>
U?
U@
UA
UB
UC
#1000000
U-
U.
U/
00
11
02
05
18
0;
0<
1=
U>
1?
U@
1A
0B
UC
#2000000
1&
0'
0(
1-
0.
0/
1>
0@
0C
#10000000
b0001 %
#20000000
1$
b0010 %
1,
1:
#21000000
0;
#30000000
1#
0$
b0011 %
1+
0,
17
19
0:
#31000000
01
08
0;
0=
0?
0A
#32000000
1'
1-
1.
0/
1>
1@
0C
#40000000
1$
b0100 %
1,
1:
#41000000
10
1;
1B
#42000000
1(
1/
1C
#50000000
1"
0#
0$
b0101 %
1*
0+
0,
14
16
07
09
0:
#51000000
00
12
15
08
0;
1<
0B
#52000000
0(
1-
0/
1>
0C
#60000000
1$
b0110 %
1,
1:
#61000000
0;
#70000000
1#
0$
b0111 %
1+
0,
17
19
0:
#71000000
11
18
0;
1=
1?
1A
#72000000
0&
0'
0-
0.
0/
0>
0@
0C
