problem-set-2/xand.vcd
$date
  Tue Feb 27 18:41:17 2018
$end
$version
  GHDL v0
$end
$timescale
  1 fs
$end
$var reg 4 ! a[3:0] $end
$var reg 4 " b[3:0] $end
$var reg 4 # c[3:0] $end
$scope module uut $end
$upscope $end
$enddefinitions $end
#0
b0000 !
b0000 "
bUUUU #
#10000000
b0001 "
#20000000
b0010 "
#30000000
b0011 "
#40000000
b0100 "
#50000000
b0101 "
#60000000
b0110 "
#70000000
b0111 "
#80000000
b1000 "
#90000000
b1001 "
#100000000
b1010 "
#110000000
b1011 "
#120000000
b1100 "
#130000000
b1101 "
#140000000
b1110 "
#150000000
b1111 "
#160000000
b0000 "
#170000000
b0001 !
b0001 "
#180000000
b0010 "
#190000000
b0011 "
#200000000
b0100 "
#210000000
b0101 "
#220000000
b0110 "
#230000000
b0111 "
#240000000
b1000 "
#250000000
b1001 "
#260000000
b1010 "
#270000000
b1011 "
#280000000
b1100 "
#290000000
b1101 "
#300000000
b1110 "
#310000000
b1111 "
#320000000
b0000 "
#330000000
b0010 !
b0001 "
#340000000
b0010 "
#350000000
b0011 "
#360000000
b0100 "
#370000000
b0101 "
#380000000
b0110 "
#390000000
b0111 "
#400000000
b1000 "
#410000000
b1001 "
#420000000
b1010 "
#430000000
b1011 "
#440000000
b1100 "
#450000000
b1101 "
#460000000
b1110 "
#470000000
b1111 "
#480000000
b0000 "
#490000000
b0011 !
b0001 "
#500000000
b0010 "
#510000000
b0011 "
#520000000
b0100 "
#530000000
b0101 "
#540000000
b0110 "
#550000000
b0111 "
#560000000
b1000 "
#570000000
b1001 "
#580000000
b1010 "
#590000000
b1011 "
#600000000
b1100 "
#610000000
b1101 "
#620000000
b1110 "
#630000000
b1111 "
#640000000
b0000 "
#650000000
b0100 !
b0001 "
#660000000
b0010 "
#670000000
b0011 "
#680000000
b0100 "
#690000000
b0101 "
#700000000
b0110 "
#710000000
b0111 "
#720000000
b1000 "
#730000000
b1001 "
#740000000
b1010 "
#750000000
b1011 "
#760000000
b1100 "
#770000000
b1101 "
#780000000
b1110 "
#790000000
b1111 "
#800000000
b0000 "
#810000000
b0101 !
b0001 "
#820000000
b0010 "
#830000000
b0011 "
#840000000
b0100 "
#850000000
b0101 "
#860000000
b0110 "
#870000000
b0111 "
#880000000
b1000 "
#890000000
b1001 "
#900000000
b1010 "
#910000000
b1011 "
#920000000
b1100 "
#930000000
b1101 "
#940000000
b1110 "
#950000000
b1111 "
#960000000
b0000 "
#970000000
b0110 !
b0001 "
#980000000
b0010 "
#990000000
b0011 "
#1000000000
b0100 "
#1010000000
b0101 "
#1020000000
b0110 "
#1030000000
b0111 "
#1040000000
b1000 "
#1050000000
b1001 "
#1060000000
b1010 "
#1070000000
b1011 "
#1080000000
b1100 "
#1090000000
b1101 "
#1100000000
b1110 "
#1110000000
b1111 "
#1120000000
b0000 "
#1130000000
b0111 !
b0001 "
#1140000000
b0010 "
#1150000000
b0011 "
#1160000000
b0100 "
#1170000000
b0101 "
#1180000000
b0110 "
#1190000000
b0111 "
#1200000000
b1000 "
#1210000000
b1001 "
#1220000000
b1010 "
#1230000000
b1011 "
#1240000000
b1100 "
#1250000000
b1101 "
#1260000000
b1110 "
#1270000000
b1111 "
#1280000000
b0000 "
#1290000000
b1000 !
b0001 "
#1300000000
b0010 "
#1310000000
b0011 "
#1320000000
b0100 "
#1330000000
b0101 "
#1340000000
b0110 "
#1350000000
b0111 "
#1360000000
b1000 "
#1370000000
b1001 "
#1380000000
b1010 "
#1390000000
b1011 "
#1400000000
b1100 "
#1410000000
b1101 "
#1420000000
b1110 "
#1430000000
b1111 "
#1440000000
b0000 "
#1450000000
b1001 !
b0001 "
#1460000000
b0010 "
#1470000000
b0011 "
#1480000000
b0100 "
#1490000000
b0101 "
#1500000000
b0110 "
#1510000000
b0111 "
#1520000000
b1000 "
#1530000000
b1001 "
#1540000000
b1010 "
#1550000000
b1011 "
#1560000000
b1100 "
#1570000000
b1101 "
#1580000000
b1110 "
#1590000000
b1111 "
#1600000000
b0000 "
#1610000000
b1010 !
b0001 "
#1620000000
b0010 "
#1630000000
b0011 "
#1640000000
b0100 "
#1650000000
b0101 "
#1660000000
b0110 "
#1670000000
b0111 "
#1680000000
b1000 "
#1690000000
b1001 "
#1700000000
b1010 "
#1710000000
b1011 "
#1720000000
b1100 "
#1730000000
b1101 "
#1740000000
b1110 "
#1750000000
b1111 "
#1760000000
b0000 "
#1770000000
b1011 !
b0001 "
#1780000000
b0010 "
#1790000000
b0011 "
#1800000000
b0100 "
#1810000000
b0101 "
#1820000000
b0110 "
#1830000000
b0111 "
#1840000000
b1000 "
#1850000000
b1001 "
#1860000000
b1010 "
#1870000000
b1011 "
#1880000000
b1100 "
#1890000000
b1101 "
#1900000000
b1110 "
#1910000000
b1111 "
#1920000000
b0000 "
#1930000000
b1100 !
b0001 "
#1940000000
b0010 "
#1950000000
b0011 "
#1960000000
b0100 "
#1970000000
b0101 "
#1980000000
b0110 "
#1990000000
b0111 "
#2000000000
b1000 "
#2010000000
b1001 "
#2020000000
b1010 "
#2030000000
b1011 "
#2040000000
b1100 "
#2050000000
b1101 "
#2060000000
b1110 "
#2070000000
b1111 "
#2080000000
b0000 "
#2090000000
b1101 !
b0001 "
#2100000000
b0010 "
#2110000000
b0011 "
#2120000000
b0100 "
#2130000000
b0101 "
#2140000000
b0110 "
#2150000000
b0111 "
#2160000000
b1000 "
#2170000000
b1001 "
#2180000000
b1010 "
#2190000000
b1011 "
#2200000000
b1100 "
#2210000000
b1101 "
#2220000000
b1110 "
#2230000000
b1111 "
#2240000000
b0000 "
#2250000000
b1110 !
b0001 "
#2260000000
b0010 "
#2270000000
b0011 "
#2280000000
b0100 "
#2290000000
b0101 "
#2300000000
b0110 "
#2310000000
b0111 "
#2320000000
b1000 "
#2330000000
b1001 "
#2340000000
b1010 "
#2350000000
b1011 "
#2360000000
b1100 "
#2370000000
b1101 "
#2380000000
b1110 "
#2390000000
b1111 "
#2400000000
b0000 "
#2410000000
b1111 !
b0001 "
#2420000000
b0010 "
#2430000000
b0011 "
#2440000000
b0100 "
#2450000000
b0101 "
#2460000000
b0110 "
#2470000000
b0111 "
#2480000000
b1000 "
#2490000000
b1001 "
#2500000000
b1010 "
#2510000000
b1011 "
#2520000000
b1100 "
#2530000000
b1101 "
#2540000000
b1110 "
#2550000000
b1111 "
#2560000000
b0000 "
#2570000000
b0000 !
